"measure","classifier","mvalue"
"Accuracy","lasso",82.4012638230648
"Accuracy","rf",93.6571879936809
"Accuracy","ridge",79.0521327014218
"Accuracy","svm",88.3886255924171
"Sensitivity","lasso",83.2201136820193
"Sensitivity","rf",87.7429674925653
"Sensitivity","ridge",74.6644147463878
"Sensitivity","svm",84.5660894047095
"Specificity","lasso",81.9880213196259
"Specificity","rf",96.6908523358636
"Specificity","ridge",81.2927194859816
"Specificity","svm",90.3828514304815
"Precision","lasso",70.3018802798015
"Precision","rf",93.1415643114428
"Precision","ridge",67.1460883526828
"Precision","svm",81.9391051556187
